C:\Users\dipal\eclipse-workspace\Booking_Zone_Admin\src\main\java\Admin_Business\A_Base_Class.java
<<<<<<< HEAD
C:\Users\dipal\eclipse-workspace\Booking_Zone_Admin\src\main\java\Admin_Business\CreatePackageSessionPlan.java
C:\Users\dipal\eclipse-workspace\Booking_Zone_Admin\src\main\java\Admin_Business\Update_Booking_FromTraffic.java
C:\Users\dipal\eclipse-workspace\Booking_Zone_Admin\src\main\java\Admin_Business\Edit_ReservationSlot.java
C:\Users\dipal\eclipse-workspace\Booking_Zone_Admin\src\main\java\Admin_Business\Block_SingleSlot_Createbooking.java
C:\Users\dipal\eclipse-workspace\Booking_Zone_Admin\src\main\java\Admin_Business\Upfront0_Booking.java
C:\Users\dipal\eclipse-workspace\Booking_Zone_Admin\src\main\java\Admin_Business\Add_VenueDetails.java
C:\Users\dipal\eclipse-workspace\Booking_Zone_Admin\src\main\java\Admin_Business\Mail_Paymentgateway.java
C:\Users\dipal\eclipse-workspace\Booking_Zone_Admin\src\main\java\Admin_Business\Block_slots.java
C:\Users\dipal\eclipse-workspace\Booking_Zone_Admin\src\main\java\Admin_Business\CreatePlan.java
=======
C:\Users\dipal\eclipse-workspace\Booking_Zone_Admin\src\main\java\Admin_Business\Update_Booking_FromTraffic.java
C:\Users\dipal\eclipse-workspace\Booking_Zone_Admin\src\main\java\Admin_Business\Create_Multiple_Bookings.java
C:\Users\dipal\eclipse-workspace\Booking_Zone_Admin\src\main\java\Admin_Business\Edit_ReservationSlot.java
C:\Users\dipal\eclipse-workspace\Booking_Zone_Admin\src\main\java\Admin_Business\Add_VenueDetails.java
C:\Users\dipal\eclipse-workspace\Booking_Zone_Admin\src\main\java\Admin_Business\Mail_Paymentgateway.java
>>>>>>> origin/master
C:\Users\dipal\eclipse-workspace\Booking_Zone_Admin\src\main\java\Admin_Business\Edit_Time.java
C:\Users\dipal\eclipse-workspace\Booking_Zone_Admin\src\main\java\Admin_Business\Add_Business_Page1.java
C:\Users\dipal\eclipse-workspace\Booking_Zone_Admin\src\main\java\Admin_Business\Admin_Login1.java
C:\Users\dipal\eclipse-workspace\Booking_Zone_Admin\src\main\java\Admin_Business\Edit_Date.java
C:\Users\dipal\eclipse-workspace\Booking_Zone_Admin\src\main\java\Admin_Business\Edit_Lane.java
C:\Users\dipal\eclipse-workspace\Booking_Zone_Admin\src\main\java\Admin_Business\Create_Bussiness.java
<<<<<<< HEAD
C:\Users\dipal\eclipse-workspace\Booking_Zone_Admin\src\main\java\Admin_Business\CreatePackageTimePlan.java
C:\Users\dipal\eclipse-workspace\Booking_Zone_Admin\src\main\java\Admin_Business\Edit_Event.java
=======
>>>>>>> origin/master
C:\Users\dipal\eclipse-workspace\Booking_Zone_Admin\src\main\java\Admin_Business\Edit_Addon.java
C:\Users\dipal\eclipse-workspace\Booking_Zone_Admin\src\main\java\Admin_Business\Add_Service.java
C:\Users\dipal\eclipse-workspace\Booking_Zone_Admin\src\main\java\Admin_Business\Create_Outlet.java
C:\Users\dipal\eclipse-workspace\Booking_Zone_Admin\src\main\java\Admin_Business\Admin_LogOut.java
C:\Users\dipal\eclipse-workspace\Booking_Zone_Admin\src\main\java\Admin_Business\Edit_Time_Updatesame.java
C:\Users\dipal\eclipse-workspace\Booking_Zone_Admin\src\main\java\Admin_Business\Bussiness_Login1.java
<<<<<<< HEAD
C:\Users\dipal\eclipse-workspace\Booking_Zone_Admin\src\main\java\Admin_Business\Create_Bookings_traffic.java
=======
>>>>>>> origin/master
C:\Users\dipal\eclipse-workspace\Booking_Zone_Admin\src\main\java\Admin_Business\Booking_PaymentVia_Email.java
C:\Users\dipal\eclipse-workspace\Booking_Zone_Admin\src\main\java\Admin_Business\Booking_CashPayment.java
C:\Users\dipal\eclipse-workspace\Booking_Zone_Admin\src\main\java\Admin_Business\Create_Booking1_CardPay.java
C:\Users\dipal\eclipse-workspace\Booking_Zone_Admin\src\main\java\Admin_Business\Edit_Items.java
<<<<<<< HEAD
C:\Users\dipal\eclipse-workspace\Booking_Zone_Admin\src\main\java\Admin_Business\A_Utility_Class.java
=======
C:\Users\dipal\eclipse-workspace\Booking_Zone_Admin\src\main\java\Admin_Business\EditEvent_ViewReservation.java
C:\Users\dipal\eclipse-workspace\Booking_Zone_Admin\src\main\java\Admin_Business\A_Utility_Class.java
C:\Users\dipal\eclipse-workspace\Booking_Zone_Admin\src\main\java\Admin_Business\Block_Multipleslots.java
>>>>>>> origin/master
